,corpus,model,split,sensitivity
0,RAVDESS,kell2018,1,0.48333333333333334
1,RAVDESS,kell2018,2,0.5666666666666667
2,RAVDESS,kell2018,3,0.43333333333333335
3,RAVDESS,kell2018,4,0.4166666666666667
4,RAVDESS,kell2018,5,0.48333333333333334
5,RAVDESS,kell2018,6,0.4666666666666667
6,RAVDESS,kell2018,7,0.45
7,RAVDESS,kell2018,8,0.55
8,RAVDESS,kell2018,9,0.35
9,RAVDESS,kell2018,10,0.43333333333333335
10,RAVDESS,kell2018,11,0.4166666666666667
11,RAVDESS,kell2018,12,0.4666666666666667
12,RAVDESS,kell2018,13,0.36666666666666664
13,RAVDESS,kell2018,14,0.4666666666666667
14,RAVDESS,kell2018,15,0.4666666666666667
15,RAVDESS,kell2018,16,0.6333333333333333
16,RAVDESS,kell2018,17,0.43333333333333335
17,RAVDESS,kell2018,18,0.6
18,RAVDESS,kell2018,19,0.43333333333333335
19,RAVDESS,kell2018,20,0.4666666666666667
20,RAVDESS,kell2018,21,0.55
21,RAVDESS,kell2018,22,0.5
22,RAVDESS,kell2018,23,0.45
23,RAVDESS,kell2018,24,0.5666666666666667
