,corpus,model,split,sensitivity
0,PELL,kell2018,1,0.7333333333333333
1,PELL,kell2018,2,0.9285714285714286
2,PELL,kell2018,3,0.8571428571428571
3,PELL,kell2018,4,0.8620689655172413
4,PELL,kell2018,5,0.6071428571428571
5,PELL,kell2018,6,0.9285714285714286
6,PELL,kell2018,7,0.8214285714285714
7,PELL,kell2018,8,0.7857142857142857
8,PELL,kell2018,9,0.8928571428571429
9,PELL,kell2018,10,0.75
10,PELL,kell2018,11,0.8214285714285714
11,PELL,kell2018,12,0.8571428571428571
12,PELL,kell2018,13,0.75
13,PELL,kell2018,14,0.9310344827586207
14,PELL,kell2018,15,0.6785714285714286
15,PELL,kell2018,16,0.8214285714285714
16,PELL,kell2018,17,0.7857142857142857
17,PELL,kell2018,18,0.8928571428571429
18,PELL,kell2018,19,0.9655172413793104
19,PELL,kell2018,20,0.75
20,PELL,kell2018,21,0.8620689655172413
21,PELL,kell2018,22,0.75
22,PELL,kell2018,23,0.8214285714285714
23,PELL,kell2018,24,0.7931034482758621
24,PELL,kell2018,25,0.8928571428571429
25,PELL,kell2018,26,0.8148148148148148
26,PELL,kell2018,27,0.9642857142857143
27,PELL,kell2018,28,0.8214285714285714
28,PELL,kell2018,29,0.8571428571428571
29,PELL,kell2018,30,0.7857142857142857
